starting vacuum...end.
transaction type: <builtin: TPC-B (sort of)>
scaling factor: 1000
query mode: simple
number of clients: 32
number of threads: 1
duration: 7200 s
number of transactions actually processed: 71998189
latency average = 1.049 ms
latency stddev = 3.353 ms
rate limit schedule lag: avg 0.218 (max 272.495) ms
tps = 9999.714009 (including connections establishing)
tps = 9999.717049 (excluding connections establishing)
